%YAML 1.1
%TAG !u! tag:unity3d.com,2011:
--- !u!114 &11400000
MonoBehaviour:
  m_ObjectHideFlags: 0
  m_CorrespondingSourceObject: {fileID: 0}
  m_PrefabInstance: {fileID: 0}
  m_PrefabAsset: {fileID: 0}
  m_GameObject: {fileID: 0}
  m_Enabled: 1
  m_EditorHideFlags: 0
  m_Script: {fileID: 11500000, guid: 67446ab2f7b7ec840b0aa54e36f920d6, type: 3}
  m_Name: 44EA9158-D6BA-4EE1-A69F-FFA209862582
  m_EditorClassIdentifier: 
  objectName: Main_Bank
  id: 3989171651
  guid: 44EA9158-D6BA-4EE1-A69F-FFA209862582
