%YAML 1.1
%TAG !u! tag:unity3d.com,2011:
--- !u!21 &2100000
Material:
  serializedVersion: 6
  m_ObjectHideFlags: 0
  m_CorrespondingSourceObject: {fileID: 0}
  m_PrefabInstance: {fileID: 0}
  m_PrefabAsset: {fileID: 0}
  m_Name: Water
  m_Shader: {fileID: -6465566751694194690, guid: 06605488b70830f459a4a825e375ffed, type: 3}
  m_ShaderKeywords: 
  m_LightmapFlags: 4
  m_EnableInstancingVariants: 0
  m_DoubleSidedGI: 0
  m_CustomRenderQueue: -1
  stringTagMap: {}
  disabledShaderPasses: []
  m_SavedProperties:
    serializedVersion: 3
    m_TexEnvs:
    - unity_Lightmaps:
        m_Texture: {fileID: 0}
        m_Scale: {x: 1, y: 1}
        m_Offset: {x: 0, y: 0}
    - unity_LightmapsInd:
        m_Texture: {fileID: 0}
        m_Scale: {x: 1, y: 1}
        m_Offset: {x: 0, y: 0}
    - unity_ShadowMasks:
        m_Texture: {fileID: 0}
        m_Scale: {x: 1, y: 1}
        m_Offset: {x: 0, y: 0}
    m_Floats:
    - Vector1_3a7cd331f0284520905f18f7e0674a46: 0.74
    - Vector1_48f19236863f468bae5a389e644b69f8: 1
    - Vector1_8b25eb591de24fe792c1929a62f90be1: -2.06
    - Vector1_903db4e171b94da3a2527f5c68d1c502: 86.94
    - Vector1_9d92e9887ff146a0837491010231ad9f: 1.06
    - Vector1_d4bac720ca264535aa71d750edfae83f: 0.8
    - Vector1_d9d0b7193a2545638650e23f25e54d8a: 2
    - Vector1_df82c5fa15f0439b9020a8cab7264b01: 0.1
    - Vector1_f35bc35feb5c4da5b2a9288b9c58e4bf: 0.01
    - Vector1_ff6ce0bd5e7340ce928a047b3d2679dc: 0.05
    m_Colors:
    - Color_7d7ffdd1c7864c6ea0174dd614a6bedc: {r: 0.23921569, g: 0.4509804, b: 0.5176471, a: 0.3764706}
    - Color_de6e1e363663429c95374553bd3196c2: {r: 0.42745098, g: 0.7647059, b: 0.62352943, a: 0.78039217}
    - Color_f5d8a958303049ff988decd4c4492b65: {r: 0.36862746, g: 0.6745098, b: 0.6156863, a: 0.20392157}
  m_BuildTextureStacks: []
