%YAML 1.1
%TAG !u! tag:unity3d.com,2011:
--- !u!114 &11400000
MonoBehaviour:
  m_ObjectHideFlags: 0
  m_CorrespondingSourceObject: {fileID: 0}
  m_PrefabInstance: {fileID: 0}
  m_PrefabAsset: {fileID: 0}
  m_GameObject: {fileID: 0}
  m_Enabled: 1
  m_EditorHideFlags: 0
  m_Script: {fileID: 11500000, guid: fbb10842b0ab89b48a06c35dbd212f70, type: 3}
  m_Name: 2810CBC8-2AC7-46A0-A8BE-EE06C37A906D
  m_EditorClassIdentifier: 
  objectName: Stop_Flutterfly_01
  id: 1094889465
  guid: 2810CBC8-2AC7-46A0-A8BE-EE06C37A906D
