%YAML 1.1
%TAG !u! tag:unity3d.com,2011:
--- !u!114 &11400000
MonoBehaviour:
  m_ObjectHideFlags: 0
  m_CorrespondingSourceObject: {fileID: 0}
  m_PrefabInstance: {fileID: 0}
  m_PrefabAsset: {fileID: 0}
  m_GameObject: {fileID: 0}
  m_Enabled: 1
  m_EditorHideFlags: 0
  m_Script: {fileID: 11500000, guid: fbb10842b0ab89b48a06c35dbd212f70, type: 3}
  m_Name: 36A167AD-DBEF-4993-A90E-E14E4CA845A5
  m_EditorClassIdentifier: 
  objectName: Play_SmallInsectIdle
  id: 3713128733
  guid: 36A167AD-DBEF-4993-A90E-E14E4CA845A5
