%YAML 1.1
%TAG !u! tag:unity3d.com,2011:
--- !u!114 &11400000
MonoBehaviour:
  m_ObjectHideFlags: 0
  m_CorrespondingSourceObject: {fileID: 0}
  m_PrefabInstance: {fileID: 0}
  m_PrefabAsset: {fileID: 0}
  m_GameObject: {fileID: 0}
  m_Enabled: 1
  m_EditorHideFlags: 0
  m_Script: {fileID: 11500000, guid: fbb10842b0ab89b48a06c35dbd212f70, type: 3}
  m_Name: 4578E9A0-33C6-4906-976A-D5E8C617A1AE
  m_EditorClassIdentifier: 
  objectName: Play_AmbientSwampPrototyping
  id: 1741864169
  guid: 4578E9A0-33C6-4906-976A-D5E8C617A1AE
