%YAML 1.1
%TAG !u! tag:unity3d.com,2011:
--- !u!114 &11400000
MonoBehaviour:
  m_ObjectHideFlags: 0
  m_CorrespondingSourceObject: {fileID: 0}
  m_PrefabInstance: {fileID: 0}
  m_PrefabAsset: {fileID: 0}
  m_GameObject: {fileID: 0}
  m_Enabled: 1
  m_EditorHideFlags: 0
  m_Script: {fileID: 11500000, guid: fbb10842b0ab89b48a06c35dbd212f70, type: 3}
  m_Name: 675F191F-98F2-4D2E-ADBE-8D6257CBB373
  m_EditorClassIdentifier: 
  objectName: Play_MothCluster
  id: 4048717744
  guid: 675F191F-98F2-4D2E-ADBE-8D6257CBB373
