%YAML 1.1
%TAG !u! tag:unity3d.com,2011:
--- !u!114 &11400000
MonoBehaviour:
  m_ObjectHideFlags: 0
  m_CorrespondingSourceObject: {fileID: 0}
  m_PrefabInstance: {fileID: 0}
  m_PrefabAsset: {fileID: 0}
  m_GameObject: {fileID: 0}
  m_Enabled: 1
  m_EditorHideFlags: 0
  m_Script: {fileID: 11500000, guid: d1279c8162e72ad459bd360adc690155, type: 3}
  m_Name: MothBoss
  m_EditorClassIdentifier: 
  BugName: Sir Starlight Flutterfuzz the Magnificent
  iconID: 11
  BugPicture: {fileID: 21300000, guid: c68e6299fd0972640a35de7d30bab2a6, type: 3}
  BugInfo: 
  BugInfoLines:
  - info: This is the moth boss, he is very shy and a big boi.
    bugsCaughtToUnlock: 1
  - info: 'But also very cute. '
    bugsCaughtToUnlock: 1
  - info: Easy to catch when you startle him by playing hide and seek!
    bugsCaughtToUnlock: 1
  - info: Impossible to miss, big boi loves leafy woody areas with lots of shade!
    bugsCaughtToUnlock: 1
  SeperateLines: 1
