%YAML 1.1
%TAG !u! tag:unity3d.com,2011:
--- !u!21 &2100000
Material:
  serializedVersion: 6
  m_ObjectHideFlags: 0
  m_CorrespondingSourceObject: {fileID: 0}
  m_PrefabInstance: {fileID: 0}
  m_PrefabAsset: {fileID: 0}
  m_Name: Cell Opaque
  m_Shader: {fileID: -6465566751694194690, guid: a483fa349c45557448d5a461816bfbd4, type: 3}
  m_ShaderKeywords: MAIN_LIGHT_CALCULATE_SHADOWS _MAIN_LIGHT_SHADOWS_CASCADE ADDITIONAL_LIGHT_CALCULATE_SHADOWS
  m_LightmapFlags: 4
  m_EnableInstancingVariants: 1
  m_DoubleSidedGI: 0
  m_CustomRenderQueue: -1
  stringTagMap: {}
  disabledShaderPasses: []
  m_SavedProperties:
    serializedVersion: 3
    m_TexEnvs:
    - Texture2D_0cfadaa6a051433a802ee4b5e535f42b:
        m_Texture: {fileID: 2800000, guid: 1cdc5b506b1a4a33a53c30669ced1f51, type: 3}
        m_Scale: {x: 1, y: 1}
        m_Offset: {x: 0, y: 0}
    - Texture2D_5c43b0bcee9e439aaae927b6f1f4c2eb:
        m_Texture: {fileID: 2800000, guid: 9c9ae101035d6264d813802c5c71bb45, type: 3}
        m_Scale: {x: 1, y: 1}
        m_Offset: {x: 0, y: 0}
    - unity_Lightmaps:
        m_Texture: {fileID: 0}
        m_Scale: {x: 1, y: 1}
        m_Offset: {x: 0, y: 0}
    - unity_LightmapsInd:
        m_Texture: {fileID: 0}
        m_Scale: {x: 1, y: 1}
        m_Offset: {x: 0, y: 0}
    - unity_ShadowMasks:
        m_Texture: {fileID: 0}
        m_Scale: {x: 1, y: 1}
        m_Offset: {x: 0, y: 0}
    m_Floats:
    - Boolean_1ae1555f86b1499b9036cb126f15d006: 1
    - Boolean_34b5290adc2f4d02a5ebb1ede65412eb: 0
    - Boolean_403b1df551984527bbb34f48038ef040: 0
    - Vector1_afa95a216b0a4711b87c6fff9f3fe0b1: 1.47
    - Vector1_d4c5344d4c4246699a41a5922bf3390a: -0.28
    m_Colors:
    - Color_f2ad1cc5a3b34dc58993d8a94195c973: {r: 1, g: 1, b: 1, a: 0}
  m_BuildTextureStacks: []
