%YAML 1.1
%TAG !u! tag:unity3d.com,2011:
--- !u!114 &11400000
MonoBehaviour:
  m_ObjectHideFlags: 0
  m_CorrespondingSourceObject: {fileID: 0}
  m_PrefabInstance: {fileID: 0}
  m_PrefabAsset: {fileID: 0}
  m_GameObject: {fileID: 0}
  m_Enabled: 1
  m_EditorHideFlags: 0
  m_Script: {fileID: 11500000, guid: 815681ffc6e009d4cbe2dc528d2c88c3, type: 3}
  m_Name: AF5D9082-2F78-448F-8071-5AF6D2EAB0E6
  m_EditorClassIdentifier: 
  objectName: Hub
  id: 646625282
  guid: AF5D9082-2F78-448F-8071-5AF6D2EAB0E6
  WwiseStateGroupReference: {fileID: 11400000, guid: 65d2c12b0da691e49816be79218597cd, type: 2}
