%YAML 1.1
%TAG !u! tag:unity3d.com,2011:
--- !u!114 &11400000
MonoBehaviour:
  m_ObjectHideFlags: 0
  m_CorrespondingSourceObject: {fileID: 0}
  m_PrefabInstance: {fileID: 0}
  m_PrefabAsset: {fileID: 0}
  m_GameObject: {fileID: 0}
  m_Enabled: 1
  m_EditorHideFlags: 0
  m_Script: {fileID: 11500000, guid: d1279c8162e72ad459bd360adc690155, type: 3}
  m_Name: Tester Journal 3
  m_EditorClassIdentifier: 
  BugName: Fly
  BugPicture: {fileID: 21300000, guid: c00284bddfac589428a04cc0faadfeb5, type: 3}
  BugInfo: 
  BugInfoLines:
  - info: Yall only need one bug to unlock this
    bugsCaughtToUnlock: 1
  - info: Need 3 for this one
    bugsCaughtToUnlock: 3
  - info: And five for this one!!
    bugsCaughtToUnlock: 5
  SeperateLines: 1
