{
    "originalSdkFolder": "C:\\Program Files (x86)\\Audiokinetic\\Wwise 2021.1.4.7707\\SDK",
    "currentVersion": {
        "build": 2232,
        "major": 1,
        "minor": 4,
        "nickname": "",
        "year": 2021
    },
    "installedBundleGroups": [
        {
            "id": "Packages",
            "valueId": "Unity"
        },
        {
            "id": "Packages",
            "valueId": "Extensions"
        },
        {
            "id": "DeploymentPlatforms",
            "valueId": "Mac"
        },
        {
            "id": "DeploymentPlatforms",
            "valueId": "Windows"
        },
        {
            "id": "DeploymentPlatforms",
            "valueId": "WindowsStore"
        }
    ]
}